{"response":
{"status":"ok",
 "userTier":"developer",
 "total":2013847,
 "startIndex":1,
 "pageSize":10,
 "currentPage":1,
 "pages":201385,
 "orderBy":"newest",
 "results":[
   {"id":"football/live/2018/feb/18/fa-cup-rochdale-v-tottenham-hotspur-live",
   "type":"liveblog",
   "sectionId":"football",
   "sectionName":"Football",
   "webPublicationDate":"2018-02-18T16:43:15Z",
   "webTitle":"FA Cup fifth round: Rochdale v Tottenham Hotspur – live!",
   "webUrl":"https://www.theguardian.com/football/live/2018/feb/18/fa-cup-rochdale-v-tottenham-hotspur-live",
   "apiUrl":"https://content.guardianapis.com/football/live/2018/feb/18/fa-cup-rochdale-v-tottenham-hotspur-live",
   "fields":{"headline":"FA Cup fifth round: Rochdale v Tottenham Hotspur – live!",
             "body": "<p>Test data: Food prices could rise sharply and farming busi… environmental and food standards,” it said. </p>",
             "thumbnail":"https://media.guim.co.uk/b423df896342a41075bf7229328d4c3781738455/0_158_2928_1757/500.jpg"
            },
   "isHosted":false,
   "pillarId":"pillar/sport",
   "pillarName":"Sport"
   }
]}}
